%YAML 1.1
%TAG !u! tag:unity3d.com,2011:
--- !u!114 &11400000
MonoBehaviour:
  m_ObjectHideFlags: 0
  m_CorrespondingSourceObject: {fileID: 0}
  m_PrefabInstance: {fileID: 0}
  m_PrefabAsset: {fileID: 0}
  m_GameObject: {fileID: 0}
  m_Enabled: 1
  m_EditorHideFlags: 0
  m_Script: {fileID: 11500000, guid: 54972dc8f09f6ef49994c6a5b4847bf7, type: 3}
  m_Name: Ball
  m_EditorClassIdentifier: 
  poolTag: Ball
  objectToPool: {fileID: 3283511223552399360, guid: 37489a91b6a7c174fa7b41c07c802acd,
    type: 3}
  amountToPool: 5
  shouldExpand: 1
