%YAML 1.1
%TAG !u! tag:unity3d.com,2011:
--- !u!114 &11400000
MonoBehaviour:
  m_ObjectHideFlags: 0
  m_CorrespondingSourceObject: {fileID: 0}
  m_PrefabInstance: {fileID: 0}
  m_PrefabAsset: {fileID: 0}
  m_GameObject: {fileID: 0}
  m_Enabled: 1
  m_EditorHideFlags: 0
  m_Script: {fileID: 11500000, guid: 54972dc8f09f6ef49994c6a5b4847bf7, type: 3}
  m_Name: BallBounceBackboard
  m_EditorClassIdentifier: 
  poolTag: BallBounceBackboard
  objectToPool: {fileID: 3204206520992093031, guid: d024bba92990a06488701a5ef7688dfe,
    type: 3}
  amountToPool: 7
  shouldExpand: 1
